[
     {
      "id": "31",
      "name": "Acc. para Motos y Cuatriciclos",
      "parent":1,
      "status":1
    },
    {
      "id": "32",
      "name": "Accesorios de Auto y Camioneta",
      "parent":1,
      "status":1
    },
    {
      "id": "33",
      "name": "Accesorios Náuticos",
      "parent":1,
      "status":1
    },
    {
      "id": "34",
      "name": "Accesorios para Camiones",
      "parent":1,
      "status":1
    },
    {
      "id": "35",
      "name": "Audio",
      "parent":1,
      "status":1
    },
    {
      "id": "36",
      "name": "GNC",
      "parent":1,
      "status":1
    },
    {
      "id": "37",
      "name": "Herramientas",
      "parent":1,
      "status":1
    },
    {
      "id": "38",
      "name": "Limpieza de Vehículos",
      "parent":1,
      "status":1
    },
    {
      "id": "39",
      "name": "Llantas y Tazas",
      "parent":1,
      "status":1
    },
    {
      "id": "40",
      "name": "Navegadores GPS para Vehículos",
      "parent":1,
      "status":1
    },
    {
      "id": "41",
      "name": "Neumáticos",
      "parent":1,
      "status":1
    },
    {
      "id": "42",
      "name": "Repuestos Autos y Camionetas",
      "parent":1,
      "status":1
    },
    {
      "id": "43",
      "name": "Repuestos para Motos",
      "parent":1,
      "status":1
    },
    {
      "id": "44",
      "name": "Seguridad Vehícular",
      "parent":1,
      "status":1
    },
    {
      "id": "45",
      "name": "Service Programado",
      "parent":1,
      "status":1
    },
    {
      "id": "46",
      "name": "Tuning y Performance",
      "parent":1,
      "status":1
    },
    {
      "id": "47",
      "name": "Otros",
      "parent":1,
      "status":1
    }
]