<?xml version="1.0" encoding="UTF-8" standalone="no"?>
<!-- Generator: Adobe Illustrator 19.0.0, SVG Export Plug-In . SVG Version: 6.00 Build 0)  -->

<svg
   xmlns:dc="http://purl.org/dc/elements/1.1/"
   xmlns:cc="http://creativecommons.org/ns#"
   xmlns:rdf="http://www.w3.org/1999/02/22-rdf-syntax-ns#"
   xmlns:svg="http://www.w3.org/2000/svg"
   xmlns="http://www.w3.org/2000/svg"
   xmlns:sodipodi="http://sodipodi.sourceforge.net/DTD/sodipodi-0.dtd"
   xmlns:inkscape="http://www.inkscape.org/namespaces/inkscape"
   version="1.1"
   id="Layer_1"
   x="0px"
   y="0px"
   viewBox="0 0 490 490"
   style="enable-background:new 0 0 490 490;"
   xml:space="preserve"
   inkscape:version="0.91 r13725"
   sodipodi:docname="TENER TIENDA MP5.svg"><metadata
   id="metadata91"><rdf:RDF><cc:Work
       rdf:about=""><dc:format>image/svg+xml</dc:format><dc:type
         rdf:resource="http://purl.org/dc/dcmitype/StillImage" /><dc:title></dc:title></cc:Work></rdf:RDF></metadata><defs
   id="defs89" /><sodipodi:namedview
   pagecolor="#ffffff"
   bordercolor="#666666"
   borderopacity="1"
   objecttolerance="10"
   gridtolerance="10"
   guidetolerance="10"
   inkscape:pageopacity="0"
   inkscape:pageshadow="2"
   inkscape:window-width="701"
   inkscape:window-height="480"
   id="namedview87"
   showgrid="false"
   inkscape:zoom="0.48163265"
   inkscape:cx="245"
   inkscape:cy="242.92373"
   inkscape:window-x="273"
   inkscape:window-y="51"
   inkscape:window-maximized="0"
   inkscape:current-layer="Layer_1" />
<g
   id="g3">
	<g
   id="g5">
		<g
   id="g7">
			<path
   style="fill:#FFFFFF;"
   d="M480,80v390c0,5.5-4.5,10-10,10H20c-5.5,0-10-4.5-10-10V80H480z"
   id="path9" />
			<path
   style="fill:#AFB6BB;"
   d="M480,20v60H10V20c0-5.5,4.5-10,10-10h450C475.5,10,480,14.5,480,20z"
   id="path11" />
		</g>
		<g
   id="g13">
			<rect
   x="40"
   y="35"
   style="fill:#231F20;"
   width="35"
   height="20"
   id="rect15" />
		</g>
		<g
   id="g17">
			<rect
   x="90"
   y="35"
   style="fill:#231F20;"
   width="35"
   height="20"
   id="rect19" />
		</g>
		<g
   id="g21">
			<rect
   x="415"
   y="35"
   style="fill:#231F20;"
   width="35"
   height="20"
   id="rect23" />
		</g>
	</g>
	<g
   id="g25">
		<rect
   x="110"
   y="260"
   style="fill:#E7ECED;"
   width="270"
   height="220"
   id="rect27" />
	</g>
	<g
   id="g29">
		<path
   style="fill:#FBB546;"
   d="M415,140v120h-70V130h60C410.5,130,415,134.5,415,140z"
   id="path31" />
		<rect
   x="245"
   y="130"
   style="fill:#FFD248;"
   width="100"
   height="130"
   id="rect33" />
		<rect
   x="145"
   y="130"
   style="fill:#FBB546;"
   width="100"
   height="130"
   id="rect35" />
		<path
   style="fill:#FFD248;"
   d="M145,130v130H75V140c0-5.5,4.5-10,10-10H145z"
   id="path37" />
	</g>
	<g
   id="g39">
		<rect
   x="165"
   y="350"
   style="fill:#31C0D8;"
   width="160"
   height="130"
   id="rect41" />
	</g>
	<path
   style="fill:#231F20;"
   d="M470,0H20C8.972,0,0,8.972,0,20v450c0,11.028,8.972,20,20,20h450c11.028,0,20-8.972,20-20V20   C490,8.972,481.028,0,470,0z M85,250V140h50v110h-25H85z M175,470V360h60v110H175z M255,470V360h60v110H255z M370,470h-35V360h15   v-20h-25H165h-25v20h15v110h-35V270h250V470z M155,250V140h80v110H155z M255,250V140h80v110H255z M355,250V140h50v110h-25H355z    M470,470h-80V270h25c5.523,0,10-4.477,10-10V140c0-11.028-8.972-20-20-20H85c-11.028,0-20,8.972-20,20v120c0,5.523,4.477,10,10,10   h25v200H20V90h450V470z M470,70H20V20h450V70z"
   id="path43" />
	<g
   id="g45">
		<rect
   x="210"
   y="295"
   style="fill:#231F20;"
   width="70"
   height="20"
   id="rect47" />
	</g>
	<g
   id="g49">
		<rect
   x="200"
   y="405"
   style="fill:#231F20;"
   width="20"
   height="20"
   id="rect51" />
	</g>
	<g
   id="g53">
		<rect
   x="270"
   y="405"
   style="fill:#231F20;"
   width="20"
   height="20"
   id="rect55" />
	</g>
</g>
<g
   id="g57">
</g>
<g
   id="g59">
</g>
<g
   id="g61">
</g>
<g
   id="g63">
</g>
<g
   id="g65">
</g>
<g
   id="g67">
</g>
<g
   id="g69">
</g>
<g
   id="g71">
</g>
<g
   id="g73">
</g>
<g
   id="g75">
</g>
<g
   id="g77">
</g>
<g
   id="g79">
</g>
<g
   id="g81">
</g>
<g
   id="g83">
</g>
<g
   id="g85">
</g>
</svg>