<?xml version="1.0" encoding="UTF-8" standalone="no"?>
<!-- Creator: CorelDRAW -->

<svg
   xmlns:dc="http://purl.org/dc/elements/1.1/"
   xmlns:cc="http://creativecommons.org/ns#"
   xmlns:rdf="http://www.w3.org/1999/02/22-rdf-syntax-ns#"
   xmlns:svg="http://www.w3.org/2000/svg"
   xmlns="http://www.w3.org/2000/svg"
   xmlns:sodipodi="http://sodipodi.sourceforge.net/DTD/sodipodi-0.dtd"
   xmlns:inkscape="http://www.inkscape.org/namespaces/inkscape"
   xml:space="preserve"
   width="100%"
   style="clip-rule:evenodd;fill-rule:evenodd;image-rendering:optimizeQuality;shape-rendering:geometricPrecision;text-rendering:geometricPrecision"
   viewBox="0 0 215.9 190.4"
   id="svg2"
   version="1.1"
   inkscape:version="0.91 r13725"
   sodipodi:docname="untitled.svg"><metadata
   id="metadata67"><rdf:RDF><cc:Work
       rdf:about=""><dc:format>image/svg+xml</dc:format><dc:type
         rdf:resource="http://purl.org/dc/dcmitype/StillImage" /><dc:title></dc:title></cc:Work></rdf:RDF></metadata><sodipodi:namedview
   pagecolor="#ffffff"
   bordercolor="#666666"
   borderopacity="1"
   objecttolerance="10"
   gridtolerance="10"
   guidetolerance="10"
   inkscape:pageopacity="0"
   inkscape:pageshadow="2"
   inkscape:window-width="504"
   inkscape:window-height="562"
   id="namedview65"
   showgrid="false"
   inkscape:zoom="0.23838384"
   inkscape:cx="309.08897"
   inkscape:cy="352.43289"
   inkscape:window-x="62"
   inkscape:window-y="0"
   inkscape:window-maximized="0"
   inkscape:current-layer="_206067512" />
 <defs
   id="defs4">
  <style
   type="text/css"
   id="style6">
   <![CDATA[
    .fil10 {fill:#3F3D40}
    .fil17 {fill:#4EB165}
    .fil16 {fill:#534836}
    .fil6 {fill:#6FA98F}
    .fil8 {fill:#724931}
    .fil9 {fill:#78C7C6}
    .fil5 {fill:#8B7C6F}
    .fil3 {fill:#B7B795}
    .fil7 {fill:#C8C9C2}
    .fil2 {fill:#CD776B}
    .fil0 {fill:#E5E4E4}
    .fil12 {fill:#EAA858}
    .fil14 {fill:#ECC870}
    .fil11 {fill:#EE7936}
    .fil15 {fill:#EFE02B}
    .fil13 {fill:#F08E4B}
    .fil1 {fill:#F16889}
    .fil4 {fill:#F3D3B8}
   ]]>
  </style>
   <clipPath
   id="id0">
    <rect
   x="22.1761"
   y="63.325001"
   width="180.92"
   height="183.46001"
   id="rect9" />
   </clipPath>
 </defs>
 <g
   id="Layer_x0020_1"
   transform="translate(0,-89.000184)">
  <metadata
   id="CorelCorpID_0Corel-Layer" />
  
  <g
   id="_206067512">
   
   <path
   id="_206059952"
   class="fil1"
   d="m 171.0765,160.09669 c -4.70084,1.58791 -9.2657,4.35452 -14.0245,6.02078 l -0.66077,0.70301 c 0.7873,1.88787 0.30487,-0.66111 1.0441,2.29353 l -1.23212,0.16126 c -0.43857,-0.84969 -0.002,-0.18972 -0.26331,-1.15149 -0.0247,-0.0911 -0.0444,-0.18119 -0.0716,-0.27162 -0.0276,-0.0919 -0.0618,-0.18756 -0.0895,-0.27127 l -0.21844,-0.53594 c -1.83036,0.40122 -4.33435,1.72411 -5.76635,2.35401 -1.70008,0.74788 -1.64223,0.39802 -2.01314,2.27292 -0.40886,2.06724 -0.0476,1.74836 0.30873,3.49069 1.61979,3.24539 9.11994,22.21549 11.0602,27.01723 2.25584,5.58254 1.82422,6.04765 3.05042,9.41831 l 17.44346,-7.59683 c 2.34216,-1.04341 15.69555,-7.42566 17.95207,-7.52383 l 0.71578,2.45719 -0.32151,-2.54193 1.91043,-1.30398 c 0.60416,-0.63354 3.01774,-5.13292 3.55401,-6.0891 -1.17016,-1.34624 -5.49769,-6.32781 -4.58558,-8.40667 0.43561,-0.99296 1.33541,-1.5666 1.69267,-2.78529 -1.30091,0.33038 -0.36113,-0.0162 -1.21617,1.54975 -0.47024,0.86132 -0.71088,0.93101 -1.1597,1.83173 l -16.26749,-27.55168 -9.82693,4.82565 0.96245,1.71978 c 0.0303,0.0637 0.0853,0.14338 0.12015,0.20705 0.0354,0.0646 0.10306,0.13301 0.14099,0.19804 0.0501,0.0859 0.23517,0.31638 0.27924,0.40384 0.30738,0.61054 0.26228,0.0872 0.27458,1.05447 l -1.59359,-0.12186 0.0457,-1.72206 c -1.25638,-0.40691 -0.82532,-0.20533 -1.2442,-0.10569 z"
   inkscape:connector-curvature="0"
   style="fill:#f16889" />
   <path
   id="_206059856"
   class="fil2"
   d="m 143.32951,164.26717 c -0.89423,0.63195 -2.48658,0.67796 -3.84101,0.94502 -1.47128,-0.56829 -6.94063,0.63332 -9.00172,0.96495 -0.73649,0.11844 -0.89832,0.12653 -1.39179,0.21866 l -1.44806,0.42513 c -1.41946,0.82624 -4.19621,0.85084 -6.15891,1.26459 l -0.70495,-0.30021 -1.77091,0.47684 c -3.14404,0.50247 -15.11941,2.54431 -16.80377,2.38646 -2.19058,-0.20522 -3.990881,-1.65623 -5.792551,-0.34894 -1.363092,1.16163 -0.195541,1.168 -2.576881,1.65896 -1.281779,0.26422 -2.614578,0.36 -3.835655,0.64778 l -0.14771,-1.92819 -0.115024,1.57196 -2.50092,0.76554 c -0.965177,0.28619 -0.534691,0.18552 -1.664319,-0.24861 -0.07618,-0.0293 -0.740596,-0.25055 -0.745265,-0.25169 -4.832379,-1.17791 -3.027298,2.86604 -9.307614,2.34365 l -0.0016,-0.61123 c -1.631292,0.99764 -0.908804,1.18783 -3.241174,1.60989 -1.2959,0.23448 -2.689742,0.41557 -3.891459,0.61156 -2.43965,0.39792 -5.491091,1.25604 -7.76948,0.3035 l -2.773676,0.0143 c 2.239554,3.74682 1.689717,2.01713 1.774903,7.79442 -5.022226,0.31329 -4.728744,0.0795 -8.537294,5.97669 -0.981008,1.5189 -0.209094,2.42599 -0.530023,3.26544 -0.427866,1.11937 0.490504,0.52558 -0.855392,0.84036 -0.558607,0.10022 -0.268314,-0.22562 -0.295418,0.44335 1.660219,0.50429 1.515243,0.16354 1.65293,2.54647 0.07915,1.37016 0.0369,2.82504 0.0369,4.20374 l -0.319904,0.64447 c 0.267516,0.38425 0.238589,0.22003 0.452124,0.9407 0.114682,0.38687 0.143724,0.57489 0.185861,0.976 0.686273,6.52801 -1.490872,2.46788 2.907605,10.93104 0.906298,-3.90204 -1.586194,-14.89516 0.354638,-17.35771 l 0.276855,-0.31158 c 0.09521,2.67892 0.280386,5.40112 0.305326,8.37876 0.0172,2.0578 0.440623,1.56513 0.560543,3.48535 0.252028,4.03518 -0.990573,7.58362 3.338206,9.68844 l 1.46035,0.42992 c 2.365397,0.56304 2.647262,-0.18051 3.926308,0.40805 0.08781,0.0404 0.149759,0.0965 0.230845,0.14372 l 0.405773,0.32913 c 0.948892,0.66725 -1.114708,0.0656 0.879194,0.54711 -0.823049,-1.17222 0.171854,-2.51847 0.351906,-4.58104 l 1.716478,-16.02685 7.311775,-0.3429 0.01003,13.93204 -0.909488,1.22187 c 1.233264,0.12869 1.315033,-0.63354 1.27301,3.87119 l -0.0079,4.0903 -5.421735,0.0129 -0.224468,-1.65452 -0.750161,1.43336 c -0.806878,-0.73809 -0.901061,-0.41159 -0.975769,-0.39234 2.473359,0.87077 3.092668,1.38131 6.406956,1.15229 2.3318,-0.16114 4.629549,-0.0941 7.437049,-0.0905 l 14.82308,-0.49437 -0.360113,-1.29989 0.102391,1.20115 -19.715022,0.0729 c -0.06936,-0.78581 -0.158072,-1.59974 -0.06264,-2.38806 0.254305,-2.10096 0.649145,-0.14874 0.229023,-1.852 -0.507815,-2.0587 -0.460666,-14.1368 -0.41124,-14.44258 l -0.07653,-4.53071 18.441211,-1.25649 c 1.292256,-0.61054 3.186849,-0.5372 4.748899,-0.50497 0.01586,1.7502 -0.0087,3.34675 -0.527288,4.75096 l -1.250455,0.17652 c -0.343598,2.0571 0.189045,4.21272 0.0029,5.57252 -0.196572,1.43597 -0.12106,4.46476 -0.50611,5.99173 -0.01384,1.90552 -0.08258,3.94589 -0.573979,5.44371 2.076466,0.28414 0.30476,0.64642 3.648198,1.7577 2.21951,0.73775 1.22483,1.84278 3.56985,1.51627 l -0.55941,-11.71537 8.53308,-0.073 -0.7891,10.24534 0.30509,1.72775 c 1.39783,-0.0518 0.76372,0.0129 1.00549,-1.93867 0.14237,-1.14921 0.15045,-2.29683 0.42696,-3.41154 0.57148,-2.30379 -0.25613,-5.34099 1.02122,-7.18024 1.23952,-0.0357 6.56958,-0.36728 7.06258,0.39792 0.23188,1.87193 -2.12338,9.36524 -2.66867,11.84259 0.75654,-0.73275 0.0524,-0.31376 1.12246,-0.76771 l 2.95885,-11.1398 6.04788,0.0653 0.12277,-1.54372 -5.89721,0.12778 1.56239,-6.65283 4.47398,-0.0888 c 0.0397,-0.0782 0.1657,0.0413 0.24052,0.0807 l -0.12014,5.84551 c 1.1e-4,-0.15021 -0.009,-0.59459 0.0333,-0.72158 0.5019,-1.51331 -0.0308,-0.45429 0.60815,-1.20707 l -0.31991,-0.002 0,-3.5358 c 0.65154,-1.20171 -1.8241,-2.39671 -3.21589,-1.93024 -1.47402,-0.0898 -2.57677,-0.33926 -3.69034,-0.96267 -0.33949,-0.31 0.24053,1.2e-4 -0.56168,-0.29041 -0.16149,-0.0584 -0.625,-0.19782 -0.72134,-0.21262 -1.36014,-0.21012 -0.60747,-0.27173 -1.77684,0.17994 l -1.74439,-0.3355 c -0.0649,0.8539 0.10762,0.5602 -1.42026,0.64504 l -6.57209,0.29303 c 1.82798,1.18475 2.52746,0.85881 4.21478,1.63675 -4.78193,-0.50325 -5.26389,-1.07803 -9.35408,0.59061 l 3.31497,0.0493 -0.63206,0.68547 c 1.30695,-0.0801 0.71429,0.0979 1.08852,0.18096 2.07305,0.45942 0.24371,-0.95356 2.36596,0.14737 1.01381,0.52604 1.70339,1.85041 1.30718,3.42225 -0.7554,2.99712 -4.46545,3.22728 -6.31939,0.9727 l 0.29724,1.17883 -5.95084,-2.21188 0.20727,-3.92939 c 0.88637,-0.0767 3.18628,-0.10808 3.89386,-0.46032 l -3.92996,0.0351 0.58992,-5.17779 11.20381,-0.86336 -0.95652,2.5352 4.98977,0.12231 -2.05654,-0.80084 0.31979,-1.60715 c 1.03875,0 1.12723,0.21797 1.60886,-0.32139 1.22039,-0.85186 4.75037,-0.94991 6.23727,-1.08145 l -5.2746,0.11548 c -1.22939,-0.4749 -1.1827,-0.31979 -2.57153,-0.31979 -0.15398,-1.85155 -0.11651,-0.9055 0,-2.89132 -0.80813,0.49484 -0.81109,2.16291 -1.60715,3.23081 -1.67457,0.53834 -9.6052,0.77978 -11.7943,0.77476 l 2.16712,-21.10544 1.98901,0.27572 c -1.76932,-0.49358 -2.36905,-0.85961 -4.09725,-1.56125 l 1.42436,0.70723 -2.48452,21.59355 c -1.234741,0.1329 -3.648085,0.64231 -4.743093,0.29894 l -0.320815,-3.27875 -5.929095,0.10102 -0.156933,0.59642 c -0.214902,0.74002 0.0023,0.90447 -0.805169,1.16094 l -0.642883,-1.55932 -5.785826,-0.0502 c -2.250258,-0.002 -4.528875,0.40315 -5.316846,-0.54323 l 5.598143,-0.725 -5.394858,-4.78021 c -0.68354,-0.98398 -0.742191,-8.1083 -0.377188,-9.5601 0.526036,-2.09253 1.720578,-2.3457 2.756706,-2.57666 3.206326,-0.71463 10.287141,-2.404 12.378758,-1.00299 1.477433,0.58093 1.234174,0.15227 1.261735,0.1468 0.828173,-0.16297 0.383451,-0.0609 0.878851,-0.56202 0.351109,-0.35521 1.432221,-2.62165 5.03248,-1.01062 -0.08094,-1.14603 -0.819868,-0.0506 0.358853,-0.51579 1.023256,-0.40383 1.141124,0.35613 2.61583,0.83102 4.97541,1.60226 5.69528,1.73106 11.38693,3.03926 l 1.0162,-2.89132 -4.65063,-1.51524 c -0.99137,-0.27584 -0.70733,-0.19498 -1.73344,-0.99388 1.18691,-0.42695 9.18246,-1.65179 11.15381,-1.66796 0.89685,0.2182 0.22971,0.10557 1.05013,0.0689 0.46478,-0.0206 0.96655,-0.12322 1.3967,-0.19508 0.84411,-0.141 1.67274,-0.0904 2.05482,-0.5183 0.94241,-0.87247 2.60126,-0.91268 3.8557,-0.96268 1.33372,0.51511 1.50158,0.47491 2.57301,-0.002 0.87931,-0.78683 -0.88318,-0.18643 1.3377,-0.7439 0.39393,-0.099 1.07087,-0.0698 1.49338,-0.10967 1.1844,-0.11173 1.47709,-0.3764 2.95327,-0.43061 1.23474,0.52912 0.95105,0.45749 1.93024,-0.002 0.49312,-0.4166 1.18954,-0.70803 1.94824,-0.82772 0.60701,-0.0957 1.35352,-0.14156 1.98991,-0.22151 1.26436,-0.15875 2.93027,-0.37684 3.85855,-0.42148 1.36366,-0.0658 3.02172,0.22492 4.10773,-0.34428 1.11186,-0.58264 0.88329,0.0111 0.87361,-1.53996 -0.004,-0.54015 -0.36557,-1.16027 -0.57945,-1.60692 l -2.55717,0.46009 -0.16639,-0.31978 c -0.60064,0.61099 -0.88158,0.95572 -1.73846,1.23645 -1.19876,0.39278 -0.56134,-0.23381 -1.64712,0.70985 z"
   inkscape:connector-curvature="0"
   style="fill:#cd776b" />
   <path
   id="_206059664"
   class="fil3"
   d="m 130.0539,153.64168 c 1.34977,0.70039 3.04119,0.53924 4.79878,0.77852 1.70134,0.23175 3.74535,0.76542 5.2787,0.20419 3.21327,0.89355 7.92254,1.58722 11.25027,1.58722 0.23984,0.43539 0.12413,0.26717 0.37559,0.76861 0.29849,0.59517 0.0117,0.2042 0.44837,0.84013 l 0.78318,0.96439 c -0.74435,1.01597 -0.23267,0.31022 -1.26549,0.98441 -2.40923,1.57265 -0.32445,1.32677 -2.87491,1.92831 -0.43835,0.10341 -0.66361,0.0711 -1.06301,0.25647 -1.03328,0.47935 -0.19349,-0.21274 -0.9039,0.68639 l 2.55717,-0.4601 c 0.21388,0.44666 0.57603,1.06676 0.57945,1.60692 0.01,1.55101 0.23825,0.95732 -0.87361,1.53996 -1.08601,0.5692 -2.74407,0.27857 -4.10773,0.34427 -0.92828,0.0446 -2.59419,0.26273 -3.85855,0.4215 -0.63639,0.08 -1.3829,0.12572 -1.98991,0.2215 -0.7587,0.11969 -1.45512,0.41113 -1.94824,0.82772 l 2.89132,-0.3215 c -0.039,1.75213 -5.86395,24.0988 -6.42882,26.35795 l -6.10721,-0.96439 4.75664,-19.35103 c 0.31945,-1.27735 0.50212,-2.0209 0.8128,-3.36543 0.19315,-0.8358 0.137,-0.9719 0.53914,-1.36628 0.74139,-0.72727 0.90686,-0.10295 1.60589,-0.98773 -1.47618,0.0542 -1.76887,0.31889 -2.95327,0.4306 -0.42251,0.0399 -1.09945,0.0107 -1.49338,0.10968 -2.22088,0.55746 -0.45839,-0.043 -1.3377,0.74389 l 2.56994,-0.32149 -5.51353,22.46648 c -0.56009,2.22065 -0.50428,1.65703 -6.70112,0.35555 l 5.46444,-21.85766 c 2.44489,0 1.0408,0.0757 1.60726,-0.64128 -1.25444,0.05 -2.91329,0.0902 -3.8557,0.96267 l 0.96267,0.3215 c -0.4897,1.02064 -4.53729,18.31946 -5.14294,20.89339 l -3.85729,-0.3215 c 0,-5.48802 -2.03786,-5.8422 -0.0794,-13.90118 0.1599,-0.65814 0.18302,-0.79697 0.3863,-1.22096 0.64528,-1.34646 2.79259,-2.36198 3.22899,-5.12677 -1.97135,0.0162 -9.9669,1.241 -11.15381,1.66795 1.02611,0.79892 0.74207,0.71806 1.73345,0.99388 l 4.65062,1.51525 -1.0162,2.89132 c -5.69165,-1.3082 -6.41152,-1.43701 -11.38693,-3.03925 -1.474707,-0.47491 -1.592575,-1.23487 -2.61583,-0.83103 -1.178712,0.46522 -0.439827,-0.63024 -0.358854,0.51579 l 2.626194,1.04421 c 1.7282,0.70165 2.32793,1.06768 4.09725,1.56125 l 7.91309,2.03616 c 0.34507,2.43567 0.43401,4.66087 0.8784,7.10826 0.63149,3.47795 0.61441,4.11149 0.13404,7.67815 l 0.64129,-1.28577 3.53579,0.32138 c -0.0211,0.94662 -0.11901,1.34977 -0.36306,2.19002 -0.0814,0.28073 -0.18097,0.59732 -0.35316,0.96632 l -0.56954,1.02074 5.2746,-0.11547 c -1.4869,0.13154 -5.01688,0.22959 -6.23727,1.08145 1.31457,0.22607 0.54277,-0.23164 0.89753,0.69504 0.62375,1.62925 -2.23603,1.23349 -2.82618,1.23349 l 2.05654,0.80084 1.66192,0.14783 1.74439,0.33551 c -0.54404,-0.68867 -0.0703,-0.46454 -1.92865,-0.96267 l 0.64288,-2.25004 6.75021,-0.32149 -0.96438,3.85729 -1.4402,0 c 1.11358,0.6234 2.21632,0.87293 3.69034,0.96267 -0.98567,-1.56831 -1.06437,-0.56966 0,-4.81996 1.32973,-0.30977 4.49984,-0.44655 6.42871,-0.64289 -0.0193,0.86906 -1.70258,8.08073 -2.27076,9.62251 l -0.30077,0.66349 c 0,-0.24371 0.0462,-1.49269 0.024,-1.61922 -0.32048,-1.83253 0.35577,-0.5971 -0.66533,-1.27369 l 0,3.5358 0.31991,0.002 c -0.6389,0.75279 -0.10625,-0.30623 -0.60815,1.20708 -0.042,0.12698 -0.0332,0.57136 -0.0333,0.72158 l -0.25954,0.68775 -0.12277,1.54372 c -1.37335,11.74726 -1.45864,12.00157 -8.29802,11.99883 l -0.70871,-0.92429 c -1.07007,0.45395 -0.36592,0.035 -1.12246,0.7677 l -5.69278,0.19531 1.23463,-11.83803 7.12683,-0.19987 c -0.49301,-0.7652 -5.82307,-0.43356 -7.06259,-0.39791 -1.27735,1.83925 -0.44974,4.87644 -1.02122,7.18023 -0.27651,1.11471 -0.28459,2.26233 -0.42696,3.41155 -0.24177,1.95153 0.39234,1.88686 -1.00549,1.93867 l -0.30509,-1.72775 c -0.16321,0.38447 -0.12049,0.502 -0.2657,0.85903 -0.246,0.60439 -0.0969,0.36762 -0.39359,0.7603 l -6.52528,-0.0763 c -2.34502,0.32652 -1.35034,-0.77851 -3.56985,-1.51626 -3.343439,-1.11129 -1.571733,-1.47356 -3.648199,-1.75771 -1.08043,0.25055 -0.219461,-0.004 -0.714967,0.34371 l 0.313863,1.42163 0.360104,1.29988 -14.823076,0.49438 c -2.8075,-0.004 -5.105249,-0.0708 -7.437049,0.0905 -3.314288,0.22903 -3.933597,-0.28152 -6.406956,-1.15228 -1.35216,-0.41888 -0.101814,0.089 -1.295445,-0.84128 -0.300088,-0.23392 -0.583663,-0.4191 -1.078266,-0.72271 -1.993902,-0.48151 0.0697,0.12014 -0.879194,-0.5471 l -0.405773,-0.32913 c -0.08109,-0.0473 -0.14304,-0.1033 -0.230846,-0.14373 -1.279045,-0.58856 -1.560911,0.155 -3.926307,-0.40805 l -1.460351,-0.42992 c -4.328778,-2.10483 -3.086177,-5.65326 -3.338205,-9.68844 -0.119921,-1.92023 -0.543346,-1.42756 -0.560543,-3.48534 -0.02494,-2.97766 -0.210118,-5.69985 -0.305326,-8.37877 l -0.276855,0.31159 c -1.940833,2.46254 0.55166,13.45565 -0.354639,17.35771 -4.398476,-8.46316 -2.221332,-4.40304 -2.907604,-10.93106 -0.04214,-0.4011 -0.07118,-0.58913 -0.185861,-0.97599 -0.213535,-0.72067 -0.184608,-0.55645 -0.452124,-0.94069 l 0,3.8557 c -0.0435,-0.0686 -0.08713,-0.26524 -0.09806,-0.22344 -0.01116,0.0428 -0.07517,-0.17493 -0.08894,-0.2329 -0.01435,-0.0607 -0.05649,-0.17299 -0.07163,-0.25089 l -0.118213,-1.54292 c -0.0063,-2.34593 0.272527,-1.96896 0.69675,-2.25003 0,-1.37869 0.04225,-2.83358 -0.0369,-4.20373 -0.137687,-2.38294 0.0073,-2.0422 -1.652931,-2.54648 0.02711,-0.66896 -0.263189,-0.34314 0.295419,-0.44335 l 0,-0.36114 -0.7964,0.16662 0.177433,2.88802 c -0.389601,1.3722 0.318879,14.09535 0.407823,16.71471 -1.618422,-0.0361 -1.554191,-0.35555 -1.622409,-1.9135 -0.05022,-1.14694 -0.606325,-9.11344 -0.94912,-9.7258 L 46.41521,200.7474 c -1.100359,1.47254 -0.759273,2.59544 -0.551204,4.64618 -0.473421,1.66637 0.126071,7.3547 0.550066,8.85777 0.761551,2.7001 8.799458,8.07799 11.432485,10.10378 1.612957,1.24101 2.203565,2.19127 5.448384,2.26609 3.175463,0.0733 6.707499,0.013 9.381412,-0.28722 l 29.203817,-0.36842 c -0.45029,1.9332 -2.453083,9.57958 -3.782348,10.68232 -0.493353,0.40931 -1.156736,0.77806 -1.875579,1.01734 -2.47541,0.82361 -3.684416,0.28312 -4.62807,1.47766 l 4.178678,-0.63502 c 0.376961,0.75552 -0.75654,0.56179 0.491756,0.76633 0.488338,0.0801 1.266292,-0.068 2.401273,0.19007 l -0.642888,-0.64129 c 1.567405,-2.13921 1.681524,0.12505 3.350278,-5.64984 l 2.11417,-7.20757 c 1.40512,-0.0313 2.00643,-0.33653 3.84966,-0.32901 3.88599,0.0161 9.87898,0.10967 13.23346,-0.26695 1.67834,-0.18836 7.13117,-0.35965 8.43606,0.14965 2.50696,0.97849 0.77738,4.4537 0.26387,6.30035 l -5.09352,17.08553 c -0.92509,3.24652 -1.01996,3.41826 -10.40194,3.41826 l 0.70462,0.94422 c 0.32958,0.32344 0.57351,0.43277 0.93499,0.67443 2.40389,1.60737 2.08091,1.14284 7.35904,-0.92041 1.11164,0.81711 0.0148,-0.69163 0.56168,0.64402 0.74389,-0.37253 0.1952,0.19144 0.9875,-0.79948 0.41112,-0.51443 0.45076,-0.80802 0.70085,-1.28372 0.47809,-1.75246 6.89336,-22.27208 6.77287,-23.37119 l -0.98705,-3.53146 c 1.56764,-0.41853 2.56072,-2.01088 3.10213,-3.64798 0.61828,-1.86931 1.13475,-3.68646 1.68197,-5.38973 0.56442,-1.75657 0.92896,-3.42157 1.46229,-5.28792 l 4.6128,-16.28058 c 0.55212,-1.96566 0.98898,-3.51313 1.56501,-5.50658 0.43641,-1.51035 0.96381,-3.97767 1.7191,-5.35261 2.14879,9.22346 3.58944,20.47691 6.10721,31.50089 1.83583,-0.0409 42.59753,-7.12933 43.91985,-7.51016 1.21253,-0.3494 1.25456,-0.61567 1.83867,-1.69609 0.57775,-1.06881 0.95186,-1.64519 1.17131,-2.93335 -1.62798,1.79426 -1.63208,3.70652 -3.47349,4.20909 l -43.2953,7.42395 -3.73612,-20.43101 c -2.76491,-15.62097 -2.80045,-9.26583 -0.17038,-19.66127 l 0.77488,1.04672 c -0.35635,-1.74233 -0.71759,-1.42345 -0.30874,-3.4907 0.37092,-1.87488 0.31306,-1.52503 2.01314,-2.27292 1.432,-0.6299 3.93599,-1.95279 5.76636,-2.354 l 0.21843,0.53594 c 0.0277,0.0837 0.062,0.17937 0.0895,0.27127 0.0272,0.0905 0.0469,0.18051 0.0716,0.27162 0.26114,0.96176 -0.17527,0.3018 0.2633,1.15149 l 1.23213,-0.16126 c -0.73923,-2.95464 -0.25681,-0.40566 -1.04411,-2.29353 l 0.66077,-0.70302 -1.13863,0.14612 0.37446,-2.33601 c -1.41115,-0.69198 -1.43758,-0.92487 -1.38781,-2.57142 l 2.25869,-0.62762 0.34541,-1.21141 c 0.0105,-0.1116 0.0436,-0.15499 0.0883,-0.22013 0.97486,1.02508 0.56988,0.97919 2.14924,0.89992 5.24703,-0.2633 5.41536,-0.94297 6.96557,-3.32431 -1.40342,0.6201 -0.58662,0.25875 -1.45466,1.32995 -0.6742,0.83205 -0.41466,0.68991 -1.56467,0.99524 -2.44273,0.64858 -3.64535,0.93807 -4.59185,-0.0902 -1.10048,-1.27871 0.46373,-0.47058 -1.29704,-1.37209 -0.75256,-0.38539 -0.7923,-0.23973 -1.91897,-0.87795 0.17766,-3.01147 0.73023,-4.06626 -0.31979,-5.05206 -0.55963,0.98909 -0.53446,1.10287 -0.61851,2.33317 -0.0563,0.82578 -0.0499,1.35114 -0.30237,2.14139 -6.08158,-2.8993 -8.68659,-4.58354 -15.13478,-5.19545 -1.14227,-0.10842 -5.28781,-0.88261 -5.71157,-0.65895 -0.80004,-0.17173 -3.78201,-1.91953 -4.58901,2.57301 l 0.84982,0.64289 z"
   inkscape:connector-curvature="0"
   style="fill:#b7b795" />
   <path
   id="_206059616"
   class="fil4"
   d="m 7.6987723,238.3518 c 1.3495402,-0.0785 2.218826,0.77192 3.5323787,1.4361 0.668734,0.33823 1.082707,0.45349 1.775243,0.78307 1.460806,0.69527 1.116418,0.16844 0.984766,1.46627 0.06514,-0.0554 0.158756,-0.23209 0.184836,-0.178 0.02597,0.0536 0.14304,-0.1378 0.177205,-0.18199 0.672607,-0.86929 0.448139,-0.67101 0.878853,-1.75257 0.346097,-0.86896 0.619649,-1.36697 1.033395,-2.17829 3.212475,-6.29979 4.310328,-4.80846 6.093544,-7.40676 1.594849,-2.32371 0.528883,-3.14733 1.297722,-5.45248 0.411468,-1.2336 11.695333,-14.76522 12.00715,-14.99356 0,1.92694 -3.186965,13.9752 -3.93018,16.32043 -0.805738,2.54249 -5.598599,14.05766 -5.712939,14.57972 l 6.945747,0.82657 -0.05205,1.38131 c 0.578993,-0.58753 0.435155,-0.11821 0.731712,-2.66411 1.137942,-9.76851 3.346291,-8.26728 4.15146,-11.9255 0.974971,-4.42923 -2.548183,-2.56344 1.39851,-10.48609 0.688322,-1.38166 1.369584,-2.89451 2.025677,-4.40303 l 3.76368,-9.41524 c 0.04202,0.0662 0.08109,0.10181 0.101131,0.21262 0.06708,0.37093 0.514305,0.83409 0.777038,1.07315 -0.208068,-2.05074 -0.549154,-3.17365 0.551205,-4.64618 l 0.499273,1.68572 1.939921,-5.26765 c 0.04737,0.0469 0.148848,0.12847 0.223785,0.19224 l -0.177433,-2.88801 0.796399,-0.16662 0,0.36114 c 1.345896,-0.31478 0.427525,0.27901 0.855393,-0.84037 0.320928,-0.83945 -0.450987,-1.74653 0.530021,-3.26543 3.808551,-5.8972 3.515069,-5.6634 8.537294,-5.97669 -0.08518,-5.77729 0.464652,-4.0476 -1.774901,-7.79442 l 2.773675,-0.0143 c -0.980779,-0.56805 -1.825466,-0.5709 -2.253334,-1.91589 l 2.553991,-4.27389 c 0.587078,-3.75274 -0.616689,-3.24014 -1.192834,-5.10239 -0.560429,-1.81124 0.500184,-4.0673 -0.40566,-6.21518 -0.829881,-1.9677 -1.97215,-1.92671 -3.76869,-2.68348 1.945388,-0.83466 3.188786,-0.20749 5.306141,0.77476 -0.02289,-0.0531 0.626028,-0.87509 -2.737004,-1.44691 -1.301594,-0.22139 -1.916916,-0.29189 -3.336951,0.12266 -7.577584,2.21211 -7.658101,11.9674 -8.637286,12.59252 l -3.411205,1.08896 c 0,6.34922 1.312072,6.39922 3.42e-4,11.57212 -1.466045,5.78126 -3.030715,7.40823 -6.487587,13.12003 -0.891835,1.47345 -1.666598,2.77505 -2.530873,4.21923 -0.806421,1.34748 -1.494857,2.57585 -2.367901,4.06091 l -12.179344,20.60728 c -1.677302,2.83153 -3.556409,5.10172 -5.585616,7.5933 l -5.8857037,7.46495 z"
   inkscape:connector-curvature="0"
   style="fill:#f3d3b8" />
   <path
   id="_206059736"
   class="fil5"
   d="m 91.593824,239.14217 c -1.695638,-0.65496 -19.923428,3.83349 -22.096814,4.26249 -3.286729,0.64881 -13.778749,2.42451 -16.043471,4.20715 -1.88594,1.4845 -0.851975,2.81377 -0.110696,4.71087 -0.599948,1.13383 -1.197732,1.45192 -1.249664,2.89291 l 3.819598,7.68806 c -0.246676,-2.47348 -2.60558,-2.88335 -1.464223,-7.05577 0.247018,-0.90277 0.246676,-0.76804 0.992169,-1.42823 0.831248,1.30797 -1.301708,7.7426 4.009444,7.0873 4.120938,-0.50849 -2.377013,-1.36833 8.050662,1.10458 -0.729435,1.44383 -1.725019,0.88489 -2.752379,2.40355 -0.546535,0.80801 -1.43632,2.54852 -1.580954,4.01957 l 4.638432,6.75135 c -0.677389,-2.49112 -2.699195,-3.5752 -2.046632,-5.78298 l 2.751923,-4.56486 0.02756,1.60737 c 2.501718,-0.39859 -0.180166,-0.0952 3.23605,3.77519 0.942172,-0.74983 0.612247,-0.80848 -0.04624,-4.03336 0.723741,-0.42559 -0.897073,-0.4536 1.315262,-0.25272 -0.932037,-1.15342 -0.615665,-0.0684 -1.2229,-2.09958 l 2.511511,0.80961 -3.0347,-2.56572 c 1.110153,-0.8858 3.774727,-0.94172 5.171756,-1.13088 l 39.623072,-5.19567 c -0.79048,2.31938 -0.81382,0.2773 -2.35639,2.70147 -2.60001,4.08586 -0.90767,8.27353 0.543,9.13917 l 2.38521,0.84276 c -0.83535,-2.85602 -4.28437,-3.49936 0.002,-9.7602 1.02861,0.57148 0.58276,0.90289 0.14589,2.04105 l 1.13988,-0.55052 c 1.70498,1.99208 -0.19588,1.27756 2.4918,3.38581 l 0.18314,-4.43845 c 0.0833,-0.0186 0.26239,-0.0485 0.34803,-0.0653 0.0998,-0.0196 0.27515,-0.002 0.41204,-0.0136 -0.76247,-0.74082 -0.54756,-0.40839 -1.08271,-1.52618 1.19602,-0.57193 -0.38277,0.41238 2.07283,-0.64288 -0.9407,-0.86882 -1.08055,-0.82578 -2.16257,-1.37755 l -0.42252,-0.22959 c 1.07963,-0.92066 2.27384,-1.06119 3.5432,-2.19355 -0.54688,-1.33565 0.54995,0.17311 -0.56168,-0.64402 -5.27813,2.06326 -4.95515,2.5278 -7.35904,0.92042 -0.36147,-0.24167 -0.60541,-0.351 -0.935,-0.67443 l -0.7046,-0.94422 c -0.47172,-1.47471 -9.59336,-6.24171 -11.043,-9.20922 -1.16027,-2.37508 -1.28292,-2.23158 -3.122626,-4.03541 l -0.943542,0.3855 c -1.134981,-0.25806 -1.912925,-0.11001 -2.401269,-0.19007 -1.248297,-0.20454 -0.114796,-0.0108 -0.491757,-0.76634 l -4.178677,0.63503 z"
   inkscape:connector-curvature="0"
   style="fill:#8b7c6f" />
   <path
   id="_206060144"
   class="fil4"
   d="m 116.17584,107.99772 c -6.17782,2.54841 -2.34227,7.12296 -2.06086,8.6579 0.56099,3.05919 0.22321,3.91378 1.3976,7.2972 1.15821,3.33683 -1.40808,6.86694 -5.3156,6.86694 l -0.41465,0.96437 c 3.45824,6.52347 6.12235,5.15696 15.267,5.16926 0.14668,-2.21655 -0.0178,-0.98898 -2.509,-3.88349 l -0.0888,-3.53579 c 2.74339,0 8.16739,-1.18885 8.94124,-1.0654 2.99188,0.47729 1.30228,2.30298 6.80921,-1.82763 0.58718,1.1097 0.53127,1.47573 1.54963,2.30766 l 2.30754,1.87102 0.64289,-1.92854 6.75021,-0.32149 4.82155,19.92912 c -0.90868,-0.48083 -1.674,-0.67569 -2.68757,-1.16972 -3.07946,-1.50078 -16.43547,-9.19783 -19.17019,-9.05626 -1.78174,-0.0882 -1.87376,0.29439 -2.63657,1.39691 -0.62647,0.82726 -0.89878,2.03046 -1.13179,3.16806 -0.34461,1.68219 -0.63855,2.33385 -0.24075,3.08219 0.87954,1.65452 0.40315,3.64114 2.21906,3.50083 0.76417,-0.059 0.12083,-1.22074 1.14728,0.21433 0.98875,-2.85681 6.94199,-0.61737 9.32162,1.11368 -2.20949,0 -5.62787,-1.04922 -7.30255,-0.32298 0.42376,-0.22367 4.5693,0.55053 5.71157,0.65895 6.44819,0.6119 9.0532,2.29615 15.13478,5.19544 0.25249,-0.79025 0.246,-1.3156 0.30237,-2.14139 0.084,-1.23029 0.0589,-1.34407 0.61851,-2.33316 1.05002,0.98579 0.49744,2.04059 0.31979,5.05207 1.12667,0.63821 1.16641,0.49255 1.91896,0.87794 1.76079,0.90151 0.19657,0.0933 1.29704,1.37209 0.6061,-0.68742 4.6225,0.96733 5.01266,-2.06896 l -0.51248,-6.93288 c 2.26848,1.20047 2.60638,1.92979 4.17867,3.8573 -0.42467,1.82273 -1.21264,1.29192 -1.06767,2.90954 0.35043,-0.72647 0.84686,-1.50796 1.45625,-2.06508 0.57968,-1.44395 -0.3437,-1.95576 -1.08555,-2.71548 -1.28861,-1.31982 -0.94001,-1.00173 -1.87296,-2.94895 1.92512,0.40225 2.20517,1.17791 4.17868,2.89291 l 1.28577,-1.60874 c -1.08932,-0.29997 -0.15238,0.0131 -1.28736,-0.75232 0.056,0.0627 0.15693,0.0598 0.1821,0.17413 l 0.71793,1.15673 -0.57865,0.70723 c -0.74287,-0.19839 -3.32853,-2.47553 -4.17868,-3.21441 0.96005,0.0798 2.18193,0.6398 3.06021,0.96427 l -0.80847,-1.28407 3.5342,1.28565 c 0.13541,-0.68855 5.3099,-7.94793 5.6708,-8.35894 -1.1754,1.02486 -3.7483,5.50099 -4.70653,7.07159 -2.23432,-0.0498 -4.14918,-1.86488 -7.80114,-2.48487 -0.53196,-0.0903 -0.87704,-0.0956 -1.40774,-0.19941 -0.89251,-0.17447 -1.0064,-0.21217 -1.36502,-0.5635 -0.36717,-0.35966 -3.73362,-8.73557 -4.21216,-9.93113 -1.34237,-3.35347 -2.69089,-6.61549 -4.27696,-9.86623 -1.11665,-2.28852 -3.10976,-2.91341 -5.94595,-4.65984 -0.88466,-0.54483 -1.37323,-0.98886 -2.47997,-1.22426 0.246,0.48617 -0.15511,0.39415 0.6225,0.83898 l -2.54523,-0.57124 2.90282,2.62517 -3.59922,-0.44871 c -2.34877,-1.5444 -0.52444,-1.19011 -2.81638,-0.3625 l -1.24079,-6.19296 c -0.46316,-2.21154 -0.12322,-4.4249 -0.42171,-6.63347 l -7.53989,1.74118 c -4.84149,0.78888 -3.42225,0.18142 -7.76003,-0.67533 l 1.26424,3.17044 c -3.62428,1.11733 -2.43269,0.92988 -4.41453,-0.46749 -0.65279,0.0624 -0.3092,0.0943 0.15989,-0.0958 l 0.008,-1.28565 c -0.59369,-0.51567 -0.48926,0.80278 -0.48926,-0.96438 1.29876,0 0.13701,-0.0753 0.64289,0.39598 0.42274,-0.53595 0.36067,0.72601 0.3601,-0.71736 -0.65199,-0.37036 -1.68265,-0.81781 -1.83856,-1.7626 -0.0212,-0.12801 -0.0735,-0.16503 -0.12869,-0.2353 l -1.60726,1.33873 -0.16833,-0.9481 z"
   inkscape:connector-curvature="0"
   style="fill:#f3d3b8" />
   <path
   id="_206060264"
   class="fil6"
   d="m 176.98146,141.10633 c -0.36091,0.41101 -5.53539,7.6704 -5.67081,8.35895 l -3.5342,-1.28565 0.80848,1.28405 c 0.49756,0.46704 -0.0692,0.2198 0.79708,0.21205 1.13498,0.76543 0.19804,0.45235 1.28736,0.75233 l -1.28576,1.60875 c -1.97352,-1.71501 -2.25356,-2.49067 -4.17869,-2.89292 0.93295,1.94721 0.58435,1.62913 1.87296,2.94895 0.74185,0.75972 1.66523,1.27152 1.08555,2.71547 1.6641,-0.57557 1.75202,1.59668 1.73288,1.66854 l -1.26389,2.6476 c 2.30606,-0.58206 2.79986,-1.29545 2.97673,-0.0485 0.18142,1.27826 0.31182,0.24884 -0.53275,1.02144 0.41887,-0.0996 -0.0122,-0.30122 1.2442,0.10569 l -0.0457,1.72206 1.5936,0.12186 c -0.0123,-0.96723 0.0328,-0.44393 -0.27458,-1.05447 -0.044,-0.0875 -0.22913,-0.31786 -0.27925,-0.40384 -0.038,-0.0651 -0.10557,-0.13347 -0.14098,-0.19805 -0.0348,-0.0636 -0.0899,-0.14327 -0.12015,-0.20704 l -0.96245,-1.71978 9.82693,-4.82566 16.26748,27.55169 c 0.44883,-0.90072 0.68947,-0.97041 1.1597,-1.83173 0.85505,-1.56603 -0.0847,-1.21937 1.21618,-1.54975 0.87931,-0.75153 6.9183,-10.12554 8.1002,-11.88723 0.59597,-0.88853 1.66045,-1.93093 1.48484,-3.18127 -0.0691,-0.49164 -1.2434,-3.18286 -1.5789,-3.60344 -0.37685,-0.4724 -0.007,-0.11286 -0.66839,-0.61715 l -8.11684,-5.70508 c -5.75883,-4.16513 -15.24377,-10.16505 -21.40006,-13.958 -0.47718,0.7127 -0.99866,1.34237 -1.40079,2.25003 z"
   inkscape:connector-curvature="0"
   style="fill:#6fa98f" />
   <path
   id="_206060408"
   class="fil7"
   d="m 90.951056,241.48479 c -0.364319,0.0597 -0.343934,0.005 -0.675796,0.18153 -0.08348,0.0445 -0.205904,0.11947 -0.28756,0.16627 -0.08132,0.0467 -0.174016,0.13519 -0.259544,0.20454 -0.0164,0.0594 0.777153,1.01346 -0.115138,0.1452 -0.01708,-0.0166 -0.100674,-0.11377 -0.118783,-0.13403 -0.02893,-0.0321 -0.09999,-0.16127 -0.150442,-0.24156 l -1.384048,0.55189 -0.223101,-0.2247 -1.384275,0.54608 c 1.30353,0 0.409075,-0.0764 0.741393,0.3215 -1.82877,0 -0.37491,0.11206 -0.964267,-0.54312 l -1.375163,0.54312 c 1.292255,0 0.399737,-0.0767 0.732282,0.32139 -1.825923,0 -0.376619,0.10488 -0.964381,-0.51659 l -1.351021,0.22527 -1.439509,0.6127 c 0.428891,0.35942 0.07289,-0.0474 -0.102383,-0.26171 l -1.648033,0.31752 -1.430627,0.58707 c 1.425274,0 0.493465,-0.0798 0.828629,0.3215 -1.820798,0 -0.377643,0.11411 -0.964381,-0.56828 l -1.459667,0.56828 c 1.410697,0 0.481507,-0.0801 0.816785,0.32139 -1.830705,0 -0.373771,0.11821 -0.964266,-0.56613 l -1.602366,0.33141 -1.414227,0.55621 c 1.346579,0 0.430828,-0.0804 0.766562,0.32138 -1.829225,0 -0.374682,0.11321 -0.96438,-0.54665 l -1.385984,0.54665 c 1.305695,0 0.410784,-0.0764 0.743101,0.3215 -1.827858,0 -0.375365,0.10956 -0.964266,-0.53366 l -1.207867,0.53366 c 0.232782,0.11059 0.210346,0.54939 -0.399282,-0.20317 l -1.200009,0.52456 -0.08575,-0.26262 c -0.503145,0.0957 -0.166729,-0.0597 -0.664862,0.14622 l -0.844004,0.4379 c 1.483469,0 0.527858,-0.0834 0.865983,0.32138 -1.822733,0 -0.376504,0.1189 -0.964266,-0.58514 l -1.462515,0.58514 c 1.414114,0 0.484354,-0.08 0.819632,0.3215 -1.830363,0 -0.374112,0.11661 -0.96438,-0.56054 l -1.595076,0.32571 -1.412406,0.55622 c 1.334735,0 0.421832,-0.0804 0.757452,0.32138 -1.829453,0 -0.37457,0.11389 -0.964267,-0.5495 l -1.367648,0.5495 c 1.282804,0 0.391993,-0.0769 0.724766,0.32149 -1.828086,0 -0.375367,0.1099 -0.964381,-0.53492 -0.375365,0.0601 -0.32947,-0.003 -0.674542,0.17619 -0.08234,0.0427 -0.206018,0.11605 -0.286649,0.16103 -0.07983,0.0444 -0.17322,0.13052 -0.258519,0.1977 0.246789,0.11491 0.216609,0.54267 -0.387438,-0.20374 l -1.132248,0.52512 -0.153517,-0.23391 -1.10127,0.55542 c -0.09783,0.54209 0.04464,0.39723 -0.184494,-0.11081 -0.860745,0.37867 -0.413518,-0.11354 -1.079974,0.98146 l -0.429803,1.27894 5.826142,0.42194 c -0.61145,0.59971 0.122426,0.1796 -0.820543,0.46647 l -3.074447,0.49779 3.757302,1.21299 c 1.990259,5.55784 1.07075,5.42663 6.824915,6.44488 3.229558,0.57148 16.032425,-1.61375 19.430875,-2.08831 l 23.85304,-3.14346 1.5592,-1.03636 c -1.92135,-0.52888 -1.82558,-0.9129 -2.93129,-1.97112 -1.71648,-0.68821 -0.90516,-0.73172 -2.2063,-1.38747 -1.61877,-1.37835 -4.15693,-3.02729 -5.90313,-4.23926 l -0.27013,1.282 -5.963378,0.59176 c -1.400675,-2.67517 -0.146684,-3.70766 1.208894,-5.59097 l -1.851776,-0.32526 c -2.189672,3.32078 -0.524556,3.43045 -1.607149,6.7132 -2.035699,-0.24919 -0.848217,0.63775 -1.466842,-1.11973 -1.007656,-2.86307 0.561796,-4.90071 1.193973,-6.39819 -0.869969,0.0333 -0.692991,-0.0633 -1.558975,0.44791 -0.01264,0.0333 0.843776,1.05276 -0.142129,0.1451 -0.01845,-0.0171 -0.105002,-0.11355 -0.124477,-0.13427 -0.03029,-0.0322 -0.101016,-0.16115 -0.151581,-0.24178 z"
   inkscape:connector-curvature="0"
   style="fill:#c8c9c2" />
   <path
   id="_206060552"
   class="fil0"
   d="m 95.263093,149.91649 9.978847,5.46239 c -0.29222,-1.9053 -1.3107,-2.1669 -3.5113,-3.66574 2.60216,-1.20787 8.99362,8.79331 18.45465,3.57247 7.00178,-3.86379 6.55296,-10.90201 9.59461,-15.61594 0.7628,-1.10253 0.85482,-1.48507 2.63655,-1.39692 l -0.41158,-0.26603 c -2.48737,-1.2942 -6.77275,-2.74179 -9.46409,-4.93693 2.49124,2.89451 2.65569,1.66693 2.509,3.88348 -9.14464,-0.0123 -11.80876,1.35422 -15.267,-5.16924 l 0.41466,-0.96439 c -4.58206,0 -2.8969,0.061 -6.78108,-0.30498 -1.86282,-0.1755 -1.76316,0.31819 -1.85781,0.39507 0.69437,0.32582 -0.73456,3.16123 -1.04433,4.07026 -0.590711,1.73379 -1.047284,3.38786 -1.610785,5.13292 -1.249773,3.87015 -3.745344,5.63048 -3.640342,9.80358 z"
   inkscape:connector-curvature="0"
   style="fill:#e5e4e4" />
   <path
   id="_206060672"
   class="fil8"
   d="m 116.17584,107.99772 0.16833,0.9481 1.60726,-1.33873 c 0.0551,0.0703 0.10751,0.10729 0.12869,0.2353 0.1559,0.94479 1.18657,1.39224 1.83856,1.7626 5.7e-4,1.44337 0.0627,0.18141 -0.3601,0.71736 -0.45679,0.17116 -0.4027,-0.19805 -0.15363,0.5684 l -0.008,1.28565 -0.15989,0.0957 c 1.98183,1.39737 0.79025,1.58483 4.41453,0.46749 l -1.26424,-3.17044 c 4.33777,0.85675 2.91854,1.46421 7.76003,0.67533 l 7.53989,-1.74118 c 0.29849,2.20857 -0.0414,4.42193 0.42171,6.63347 l 1.24079,6.19296 c 2.29193,-0.8276 0.46761,-1.1819 2.81638,0.3625 l 3.59922,0.44871 -2.90282,-2.62517 2.54523,0.57125 c -0.77761,-0.44484 -0.3765,-0.35282 -0.6225,-0.83899 l -0.79754,-1.28577 2.57153,-4.50017 c 5.5231,0 7.93006,-4.00296 6.44021,-9.33313 -0.99,-3.54263 -4.11581,-6.161532 -6.74702,-5.772272 l -3.55048,0.962216 c -9.33939,-6.254008 -15.55548,-7.91548 -23.18339,1.915086 -1.30252,1.67857 -0.50555,0.25158 -1.42004,0.86793 -1.5001,1.01107 -0.20351,-0.91974 -0.2567,0.37331 l -0.85482,-3.156326 c -1.84085,0.153176 -3.94283,2.716966 -1.35443,6.196726 1.2098,1.62639 0.34028,0.74845 0.54322,2.48201 z"
   inkscape:connector-curvature="0"
   style="fill:#724931" />
   <path
   id="_206060864"
   class="fil7"
   d="m 95.263093,149.91649 c -0.112747,2.49022 -0.981805,3.30119 -2.151862,4.87782 -0.640263,0.86257 -0.993876,1.31845 -1.657372,2.199 -0.555077,0.73674 -1.125414,1.35273 -1.468664,2.11281 l 5.144652,-6.75009 c 0,2.95053 -0.02392,4.36226 -0.451328,6.94176 -0.388803,2.34626 -0.291204,2.54157 -2.526771,2.93995 -0.275261,0.0489 -0.549496,0.083 -0.810294,0.14531 -0.648463,0.15489 -0.307376,-0.004 -0.711782,0.22663 l 0.432991,0.0455 -4.101463,0.69368 c 0.781708,0.74971 1.183495,1.34749 0.709618,2.50752 l 0.708822,-1.60714 5.464443,-0.64289 c 0,1.7642 -0.522962,2.73051 0.0058,4.15784 0.792186,2.13853 1.469234,1.21744 2.565603,2.53519 1.801671,-1.30728 3.601964,0.14373 5.792554,0.34896 1.68436,0.15784 13.65974,-1.88401 16.80377,-2.38647 l 1.77091,-0.47684 c -0.53469,-0.24713 -1.01893,0.42092 0.43152,-1.86259 2.75749,-4.34108 1.01197,-3.46371 4.77349,-5.209 l -1.28576,6.42871 c -2.75682,0.0613 -2.72072,0.33744 -3.2143,0.94308 1.9627,-0.41375 4.73945,-0.43835 6.15892,-1.26458 l -1.65886,0 1.28577,-5.78583 13.8218,2.25003 c -0.11788,1.41719 0.19736,0.53333 -0.90994,1.40375 -0.072,0.0565 -0.16013,0.11241 -0.22823,0.16377 l -0.46899,0.35954 c 1.35445,-0.26707 2.94679,-0.31308 3.84101,-0.94502 1.08578,-0.94366 0.44838,-0.31706 1.64713,-0.70985 0.85687,-0.28072 1.13783,-0.62546 1.73846,-1.23646 l -1.11927,0 c 0.36581,-1.57013 0.99251,-2.40684 2.34205,-3.12239 1.01198,-0.53651 2.92845,-1.34168 4.26774,-1.37778 -0.43664,-0.63594 -0.14987,-0.24496 -0.44837,-0.84013 -0.25146,-0.50144 -0.13574,-0.33323 -0.3756,-0.76861 -3.32771,0 -8.03699,-0.69367 -11.25026,-1.58722 0.74048,0.91291 -0.14862,0.21035 0.98089,0.59334 l 8.89797,1.5526 -1.56945,0.68069 c -2.50855,0.96734 -2.11974,1.20582 -4.45223,4.54801 -4.01992,0 -13.92919,-2.08227 -18.32186,-2.89291 0.32116,-1.20275 3.04529,-5.03122 4.3872,-5.46444 l -0.84981,-0.64289 c 0.80699,-4.49254 3.78896,-2.74474 4.589,-2.57301 -1.03225,-1.10867 0.34736,-0.0888 -0.77305,-0.53617 -0.11422,-0.0456 -1.06403,-0.22162 -1.24601,-0.25453 -1.02646,-1.43507 -0.38312,-0.27333 -1.14729,-0.21433 -1.81589,0.1403 -1.33951,-1.84632 -2.21905,-3.50084 -0.3978,-0.74834 -0.10387,-1.39999 0.24076,-3.08218 0.233,-1.13761 0.5053,-2.3408 1.13179,-3.16806 -3.04165,4.71393 -2.59283,11.75215 -9.59461,15.61594 -9.46102,5.22084 -15.85249,-4.78034 -18.45465,-3.57247 2.2006,1.49884 3.21908,1.76044 3.5113,3.66574 l -9.978845,-5.46239 z"
   inkscape:connector-curvature="0"
   style="fill:#c8c9c2" />
   <path
   id="_206060720"
   class="fil4"
   d="m 79.493174,151.7136 c 3.08071,7.3448 -1.793693,11.75933 -8.170014,12.61176 l 0.08177,0.92931 c 1.259684,1.35557 3.562331,0.0925 5.72262,-0.68206 l 1.607262,4.17868 2.580412,1.22108 1.693246,-0.77078 c -0.288016,-1.40625 -2.737688,-5.41331 -3.572922,-6.87286 l 0.868717,-0.93443 c 1.527771,0.0313 4.696286,1.6125 6.656821,1.95495 l 4.101463,-0.69367 -0.432992,-0.0455 c -1.748138,0.0683 -2.361752,0.35373 -3.857293,0.35373 0.924634,-1.38075 2.10608,-2.39399 3.212817,-3.8573 0.34325,-0.76006 0.913587,-1.37607 1.468664,-2.11279 0.663495,-0.88057 1.01711,-1.33645 1.657372,-2.19902 1.170057,-1.57662 2.039116,-2.3876 2.151862,-4.87781 -0.105003,-4.1731 2.390567,-5.93342 3.64034,-9.80358 0.56351,-1.74507 1.020073,-3.39914 1.610801,-5.13293 0.30977,-0.90903 1.73868,-3.74443 1.04433,-4.07026 -1.730498,0.17106 -2.518238,1.63506 -3.448341,2.89041 -0.942062,1.27153 -1.746433,2.50434 -2.597266,3.83144 -0.979868,1.52823 -4.166378,6.89211 -5.20467,7.65275 0,-2.23911 0.681717,-5.35147 1.054805,-7.62394 0.858354,-5.22915 0.331521,-2.53953 3.96446,-4.71428 2.041959,-1.22233 2.700785,-2.77629 7.618362,-5.23894 1.51626,-0.75939 2.25299,-0.40987 3.1127,-1.63244 -2.24695,0.79743 -4.60449,2.39615 -6.94939,2.32565 -0.38903,-1.27084 0.09392,-1.05855 -0.765081,-2.21028 l -1.607147,2.05813 c 0.239842,-1.02964 0.669074,-2.25617 1.430176,-2.89302 -1.823425,-3.50846 0.0067,-3.13116 0.294848,-6.01018 0.05085,-0.50839 4.514294,-2.0562 5.239744,-2.34718 -4.728404,-0.61657 -2.4737,-0.54676 -5.036125,1.28577 l -1.033618,0.0999 c -1.175184,0.0834 -0.454064,0.0147 -1.216752,0.19851 -1.649286,0.39757 -1.002417,0.0492 -2.182496,0.70768 -0.776697,0.43345 -1.654525,0.6627 -2.245248,1.31617 -2.283513,2.52587 -3.896926,9.53812 -4.779649,12.57794 l -6.542709,21.10078 c -0.08086,-0.97144 -0.166955,-1.42231 -0.599947,-2.01281 -0.482987,-0.65872 0.189733,0.0107 -0.571932,-0.55861 z"
   inkscape:connector-curvature="0"
   style="fill:#f3d3b8" />
   <path
   id="_206060984"
   class="fil9"
   d="m 197.98988,202.57589 0.96437,-0.71794 c -0.0188,-0.84081 -0.22856,-2.23146 -0.64288,-2.92252 l -0.71577,-2.45719 c -2.25652,0.0982 -15.60991,6.48042 -17.95207,7.52384 l -17.44347,7.59682 c -1.2262,-3.37066 -0.79457,-3.83577 -3.05041,-9.41831 -1.94027,-4.80174 -9.4404,-23.77183 -11.0602,-27.01722 l -0.77487,-1.04672 c -2.63007,10.39544 -2.59453,4.04031 0.17037,19.66127 l 3.73612,20.43101 43.2953,-7.42396 c 1.84141,-0.50257 1.84551,-2.41482 3.47351,-4.20908 z"
   inkscape:connector-curvature="0"
   style="fill:#78c7c6" />
   <path
   id="_206061128"
   class="fil10"
   d="m 91.274034,175.17624 c -2.091617,-1.40102 -9.172432,0.28835 -12.378757,1.00298 -1.036128,0.23096 -2.230671,0.48413 -2.756707,2.57666 -0.365002,1.45181 -0.306352,8.57613 0.377188,9.56009 l 5.394859,4.78023 -5.598144,0.72499 c 0.787972,0.94638 3.066588,0.54118 5.316847,0.54323 l 5.785827,0.0502 0.642881,1.55931 c 0.807446,-0.25647 0.590267,-0.42091 0.805169,-1.16094 l 0.156934,-0.59642 5.929094,-0.10102 0.320815,3.27876 c 1.095002,0.34337 3.508346,-0.16605 4.74309,-0.29895 l 2.48452,-21.59355 -1.42436,-0.70723 -2.626197,-1.04422 c -3.600251,-1.61102 -4.681363,0.65542 -5.032471,1.01063 -0.495402,0.50109 -0.05068,0.39905 -0.878853,0.56202 -0.02756,0.006 0.215699,0.43412 -1.261735,-0.1468 z"
   inkscape:connector-curvature="0"
   style="fill:#3f3d40" />
   <path
   id="_206061272"
   class="fil11"
   d="m 76.878141,204.51421 c 2.184091,0.52251 1.291459,-1.5822 5.18736,1.72468 0.890355,0.75563 3.412913,3.03835 3.64615,4.42263 0.338581,2.01052 -5.549515,7.13991 -7.037198,8.64639 l 17.646407,-0.2756 -0.457705,-11.4039 1.196705,0.65655 c 0.05576,1.8364 0.09908,4.99672 0.650857,6.42882 0.38504,-1.52697 0.309538,-4.55575 0.5061,-5.99173 0.186209,-1.35979 -0.346433,-3.51541 -0.0029,-5.57252 -2.80499,-1.21994 -3.187416,-0.39245 -2.971148,-4.4225 l -18.441212,1.25649 0.07653,4.53069 z"
   inkscape:connector-curvature="0"
   style="fill:#ee7936" />
   <path
   id="_206061416"
   class="fil12"
   d="m 60.857902,157.35661 c 1.484609,1.01176 3.850917,1.8487 5.376865,3.32089 0.70495,0.68002 1.129628,1.50056 2.021463,2.13786 1.18657,0.84799 1.960421,0.61999 3.06693,1.50978 6.376321,-0.85244 11.250724,-5.26696 8.170014,-12.61177 0.278563,-1.4796 -0.920648,-2.54989 -1.828883,-3.77507 -1.305581,-1.76123 0.723171,-2.44113 -1.236111,-4.20704 -0.480026,-0.43253 -1.166526,-0.8301 -2.099929,-0.64083 -0.723742,0.14681 -1.188051,0.62193 -1.594167,1.33452 -1.495313,2.62334 -0.850153,1.32322 -3.542286,2.56537 -2.293194,1.05799 -1.397259,1.87421 -3.916172,1.14512 -1.601228,-0.46352 -3.379659,0.15271 -3.587728,2.01224 -0.273894,2.44796 1.317539,1.83901 1.963268,3.7934 l 0.941945,5.16527 c -0.561227,-0.37582 -0.972125,-0.61578 -1.577083,-0.99354 -0.899921,-0.56179 -0.861428,-0.78957 -2.158126,-0.7562 z"
   inkscape:connector-curvature="0"
   style="fill:#eaa858" />
   <path
   id="_206061560"
   class="fil10"
   d="m 114.41632,193.18035 -0.31979,-0.002 c 0.48037,-3.56665 0.49745,-4.2002 -0.13405,-7.67813 -0.44438,-2.4474 -0.53332,-4.67261 -0.87839,-7.10827 l -7.91309,-2.03615 -1.98901,-0.27572 -2.16713,21.10544 c 2.18911,0.005 10.11974,-0.23642 11.79431,-0.77475 0.79606,-1.06791 0.79902,-2.73599 1.60715,-3.23082 z"
   inkscape:connector-curvature="0"
   style="fill:#3f3d40" />
   <path
   id="_206061680"
   class="fil10"
   d="m 60.618288,176.77291 c 2.278388,0.95253 5.32983,0.0944 7.769479,-0.3035 1.201717,-0.19601 2.59556,-0.37708 3.89146,-0.61157 2.33237,-0.42206 1.609882,-0.61225 3.241174,-1.60988 0.477976,-2.29309 0.167866,-1.30274 -1.927052,-6.12931 -1.852458,2.16951 -1.167096,5.00173 -3.897496,4.52603 -1.365369,-2.19263 1.928876,-3.66722 1.709077,-7.39001 l -0.08177,-0.92931 c -1.106509,-0.88978 -1.88036,-0.66178 -3.06693,-1.50977 -0.891835,-0.6373 -1.316513,-1.45784 -2.021463,-2.13786 -1.525948,-1.47219 -3.892256,-2.30913 -5.376865,-3.32089 -2.117355,-0.98226 -3.360753,-1.60943 -5.306141,-0.77476 1.79654,0.75676 2.938809,0.71576 3.76869,2.68347 0.905844,2.14789 -0.154769,4.40395 0.40566,6.21518 0.576145,1.86226 1.779912,1.34966 1.192834,5.1024 l -2.553991,4.27388 c 0.427868,1.345 1.272555,1.34784 2.253334,1.9159 z"
   inkscape:connector-curvature="0"
   style="fill:#3f3d40" />
   <path
   id="_206061800"
   class="fil11"
   d="m 66.054943,221.09135 c 0.494603,0.30362 0.778177,0.4888 1.078265,0.72272 1.193631,0.93033 -0.05672,0.42241 1.295445,0.84128 0.0747,-0.0192 0.168891,-0.34577 0.975768,0.39232 l 0.750162,-1.43336 0.224468,1.65453 5.421736,-0.0129 0.0079,-4.0903 c 0.04202,-4.50473 -0.03974,-3.7425 -1.273009,-3.87118 l 0.909487,-1.22188 -0.01002,-13.93204 -7.311775,0.34291 -1.716478,16.02684 c -0.180053,2.06258 -1.174955,3.40881 -0.351906,4.58103 z"
   inkscape:connector-curvature="0"
   style="fill:#ee7936" />
   <path
   id="_206061920"
   class="fil13"
   d="m 96.735634,221.92272 -0.313873,-1.42163 c 0.495515,-0.34713 -0.365457,-0.0932 0.714977,-0.3437 0.491411,-1.49783 0.560088,-3.5382 0.573979,-5.44372 -0.551773,-1.43211 -0.595052,-4.59243 -0.650857,-6.42882 l -1.196705,-0.65655 0.457705,11.40389 -17.646407,0.2756 c 1.487683,-1.50646 7.375779,-6.63586 7.037198,-8.64639 -0.233237,-1.38427 -2.755795,-3.66699 -3.64615,-4.42262 -3.895901,-3.30688 -3.003269,-1.20217 -5.18736,-1.72468 -0.04943,0.30579 -0.09658,12.38389 0.411239,14.44259 0.420123,1.70327 0.02528,-0.24896 -0.229022,1.852 -0.09544,0.78831 -0.0067,1.60226 0.06264,2.38806 l 19.715017,-0.0729 -0.102381,-1.20115 z"
   inkscape:connector-curvature="0"
   style="fill:#f08e4b" />
   <path
   id="_206062064"
   class="fil14"
   d="m 103.70199,116.99796 c -0.72545,0.29098 -5.188844,1.83879 -5.239746,2.34717 -0.288129,2.87902 -2.118264,2.50172 -0.294849,6.01019 -0.349288,1.61648 -0.08738,0.65597 0.176981,0.83489 0.859032,1.15172 0.376042,0.93944 0.765081,2.21028 2.344893,0.0705 4.702433,-1.52823 6.949393,-2.32565 1.44702,0.34302 4.94387,-1.41081 6.42882,-2.00517 l -3.21441,-9.00024 c -0.96564,0.0803 -5.04238,1.27312 -5.57127,1.92853 z"
   inkscape:connector-curvature="0"
   style="fill:#ecc870" />
   <path
   id="_206062208"
   class="fil12"
   d="m 71.40493,165.25455 c 0.219799,3.7228 -3.074446,5.19739 -1.709077,7.39002 2.7304,0.4757 2.045038,-2.35651 3.897496,-4.52603 2.094918,4.82657 2.405028,3.83623 1.927052,6.1293 l 0.0016,0.61123 c 6.280316,0.52239 4.475235,-3.52156 9.307614,-2.34365 0.0047,9.7e-4 0.669075,0.22242 0.745264,0.25169 1.129629,0.43413 0.699143,0.5348 1.66432,0.24861 l 2.50092,-0.76554 0.115024,-1.57196 c -0.929531,-1.37858 -2.530872,-1.09147 -5.332905,-1.28576 -0.713263,-1.34806 -1.650083,-2.66161 -1.928646,-3.85718 1.471056,0.0327 1.162882,0.23107 2.391704,0.51522 0.82954,0.19189 2.001874,0.30475 2.685414,-0.19383 0.473877,-1.16004 0.07209,-1.75782 -0.709618,-2.50753 -1.960535,-0.34245 -5.129051,-1.92364 -6.656821,-1.95495 l -0.868718,0.93442 c 0.835235,1.45955 3.284907,5.46661 3.572922,6.87286 l -1.693245,0.77078 -2.580413,-1.22107 -1.607262,-4.17868 c -2.160289,0.77453 -4.462936,2.03763 -5.72262,0.68205 z"
   inkscape:connector-curvature="0"
   style="fill:#eaa858" />
   <path
   id="_206062328"
   class="fil15"
   d="m 104.35455,223.43056 6.52529,0.0763 c 0.29667,-0.39267 0.14759,-0.15591 0.39358,-0.7603 0.14521,-0.35703 0.1025,-0.47455 0.2657,-0.85904 l 0.78911,-10.24534 -8.53308,0.073 0.5594,11.71537 z"
   inkscape:connector-curvature="0"
   style="fill:#efe02b" />
   <path
   id="_206062472"
   class="fil15"
   d="m 119.81447,222.55819 0.70871,0.9243 c 6.83938,0.003 6.92468,-0.25157 8.29802,-11.99884 l -6.04787,-0.0653 -2.95886,11.13979 z"
   inkscape:connector-curvature="0"
   style="fill:#efe02b" />
   <path
   id="_206062592"
   class="fil15"
   d="m 118.69157,223.32578 c 0.54528,-2.47734 2.90054,-9.97065 2.66867,-11.84258 l -7.12682,0.19987 -1.23464,11.83803 5.69279,-0.19532 z"
   inkscape:connector-curvature="0"
   style="fill:#efe02b" />
   <path
   id="_206062712"
   class="fil10"
   d="m 166.70674,156.8726 c -1.55021,2.38134 -1.71854,3.06101 -6.96558,3.32431 -1.57935,0.0793 -1.17438,0.12516 -2.14923,-0.89992 -0.0448,0.0652 -0.0779,0.10853 -0.0883,0.22014 l -0.34541,1.2114 -2.25869,0.62762 c -0.0498,1.64655 -0.0234,1.87944 1.3878,2.57142 l -0.37445,2.33601 1.13863,-0.14611 c 4.75881,-1.66626 9.32367,-4.43287 14.02451,-6.02078 0.84457,-0.77259 0.71418,0.25682 0.53275,-1.02143 -0.17686,-1.24705 -0.67067,-0.53367 -2.97673,0.0484 l 1.2639,-2.6476 c 0.0191,-0.0718 -0.0688,-2.24411 -1.73288,-1.66853 -0.6094,0.55712 -1.10582,1.33861 -1.45625,2.06508 z"
   inkscape:connector-curvature="0"
   style="fill:#3f3d40" />
   <path
   id="_206066288"
   class="fil16"
   d="m 104.25547,203.43572 0.4273,-0.0353 c 4.09019,-1.66865 4.57216,-1.09386 9.35408,-0.59061 -1.68732,-0.77795 -2.38681,-0.45201 -4.21478,-1.63675 l 6.57209,-0.29304 c 1.52789,-0.0849 1.35535,0.20887 1.42026,-0.64504 l -1.66192,-0.14782 -4.98977,-0.12232 0.95653,-2.5352 -11.20382,0.86337 -0.58992,5.17779 3.92995,-0.0351 z"
   inkscape:connector-curvature="0"
   style="fill:#534836" />
   <path
   id="_206066360"
   class="fil15"
   d="m 114.23524,209.74383 c 1.39441,0.47854 6.0325,0.73001 7.75684,0.18176 l 1.47732,-6.47859 -8.53649,0.0209 c -0.0316,1.28918 -0.41683,5.11357 -0.69767,6.27599 z"
   inkscape:connector-curvature="0"
   style="fill:#efe02b" />
   <path
   id="_206048576"
   class="fil10"
   d="m 72.580567,184.50116 c 0.715768,0.89913 1.939921,1.58187 2.91011,2.24662 -0.320929,-10.75476 0.774647,-5.83252 -2.861595,-9.49552 -1.745178,0.0612 -2.754201,0.27332 -4.386518,0.54061 -2.127832,0.34849 -2.319842,0.14235 -3.660272,1.24225 2.789619,1.86021 5.793798,3.72439 7.998275,5.46604 z"
   inkscape:connector-curvature="0"
   style="fill:#3f3d40" />
   <path
   id="_206066480"
   class="fil16"
   d="m 68.538779,267.04633 c -0.806535,1.22711 -1.751897,2.41903 -0.991599,4.77055 0.505879,1.56478 1.998915,2.71672 4.088481,2.42688 3.653781,-0.50678 4.600168,-6.30161 1.408192,-7.70832 -2.212335,-0.20089 -0.591521,-0.17287 -1.315262,0.25272 0.658485,3.22488 0.988411,3.28353 0.04624,4.03336 -3.416216,-3.8704 -0.734332,-4.17379 -3.23605,-3.77519 z"
   inkscape:connector-curvature="0"
   style="fill:#534836" />
   <path
   id="_206048456"
   class="fil16"
   d="m 116.81246,261.31676 c -1.54621,3.82951 0.67546,7.78326 4.32969,5.81202 2.77185,-1.4952 3.20895,-6.06279 0.2452,-7.49398 -0.13689,0.0113 -0.31228,-0.006 -0.41203,0.0136 -0.0857,0.0168 -0.26468,0.0466 -0.34804,0.0653 l -0.18313,4.43845 c -2.68769,-2.10824 -0.78683,-1.39373 -2.49181,-3.38581 l -1.13988,0.55052 z"
   inkscape:connector-curvature="0"
   style="fill:#534836" />
   <path
   id="_206066600"
   class="fil15"
   d="m 128.94352,209.93971 0.25954,-0.68775 0.12016,-5.8455 c -0.0748,-0.0393 -0.20079,-0.15876 -0.24054,-0.0807 l -4.47397,0.0888 -1.5624,6.65283 5.89721,-0.12778 z"
   inkscape:connector-curvature="0"
   style="fill:#efe02b" />
   <path
   id="_206048336"
   class="fil10"
   d="m 13.99116,242.03713 c 0.131652,-1.29783 0.47604,-0.771 -0.984766,-1.46627 -0.692536,-0.32959 -1.106509,-0.44483 -1.775243,-0.78308 -1.3135527,-0.66418 -2.1828385,-1.51467 -3.5323787,-1.43609 -1.6609026,0.35191 -0.083478,0.37434 -3.5357951,1.43541 0.1277786,1.53597 2.1853437,2.24605 4.7122297,3.64524 2.8109151,1.55659 4.9976261,0.63343 5.1159531,-1.39521 z"
   inkscape:connector-curvature="0"
   style="fill:#3f3d40" />
   <path
   id="_206066720"
   class="fil17"
   d="m 105.80773,208.8578 c 1.85394,2.25459 5.56398,2.02443 6.31938,-0.97269 0.39621,-1.57185 -0.29337,-2.89622 -1.30717,-3.42226 -2.12226,-1.10092 -0.29292,0.31205 -2.36597,-0.14736 -0.37423,-0.0831 0.21843,-0.26103 -1.08852,-0.18097 -1.58664,0.88604 -2.94894,2.76526 -1.55772,4.72328 z"
   inkscape:connector-curvature="0"
   style="fill:#4eb165" />
   <path
   id="_206066792"
   class="fil10"
   d="m 32.914448,243.00174 0.05205,-1.38131 -6.945747,-0.82659 c -0.893658,0.57581 -0.498135,0.63354 -1.365712,1.48347 -1.086807,1.0646 -1.169032,0.34701 -1.527316,1.6887 2.145371,0.49984 10.504776,3.83838 9.78673,-0.96427 z"
   inkscape:connector-curvature="0"
   style="fill:#3f3d40" />
   <path
   id="_206048144"
   class="fil15"
   d="m 105.80773,208.8578 c -1.39122,-1.95802 -0.0289,-3.83724 1.55772,-4.72328 l 0.63207,-0.68547 -3.31497,-0.0493 -0.4273,0.0353 c -0.70758,0.35225 -3.00748,0.38357 -3.89386,0.46032 l -0.20727,3.92939 5.95084,2.21187 -0.29723,-1.17882 z"
   inkscape:connector-curvature="0"
   style="fill:#efe02b" />
   <path
   id="_206066912"
   class="fil16"
   d="m 95.242593,198.72657 c -0.216267,4.03006 0.166159,3.20257 2.971158,4.4225 l 1.250455,-0.17652 c 0.518972,-1.40421 0.543124,-3.00076 0.527288,-4.75095 -1.562051,-0.0322 -3.456643,-0.10557 -4.748901,0.50497 z"
   inkscape:connector-curvature="0"
   style="fill:#534836" />
   <path
   id="_206048024"
   class="fil0"
   d="m 147.20274,201.21496 c 0,-0.97179 -0.37833,-0.88876 -1.28576,-0.96427 -0.22048,0.94639 -0.74925,1.33132 -0.37457,1.70612 0.4355,0.4355 1.66033,-0.24474 1.66033,-0.74185 z"
   inkscape:connector-curvature="0"
   style="fill:#e5e4e4" />
   
   
   <path
   id="_206067152"
   class="fil0"
   d="m 207.63253,263.57284 1.28577,-0.96427 -0.32138,-0.96439 c -1.7831,0.47616 -1.7568,1.92866 -0.96439,1.92866 z"
   inkscape:connector-curvature="0"
   style="fill:#e5e4e4" />
   <path
   id="_206047784"
   class="fil0"
   d="m 68.378998,284.07446 c 1.182699,-0.22539 1.060386,-0.10307 1.285765,-1.28577 l -1.285765,1.28577 z"
   inkscape:connector-curvature="0"
   style="fill:#e5e4e4" />
   <polygon
   id="_206067272"
   class="fil0"
   points="187.855,245.656 187.526,245.703 187.855,245.939 "
   transform="matrix(1.1388525,0,0,1.1388525,-21.092331,3.0933465)"
   style="fill:#e5e4e4" />
   <polygon
   id="_206047664"
   class="fil0"
   points="188.419,245.092 188.749,245.045 188.419,244.81 "
   transform="matrix(1.1388525,0,0,1.1388525,-21.092331,3.0933465)"
   style="fill:#e5e4e4" />
   <polygon
   id="_206067392"
   class="fil0"
   points="188.137,245.374 188.419,245.092 "
   transform="matrix(1.1388525,0,0,1.1388525,-21.092331,3.0933465)"
   style="fill:#e5e4e4" />
   <polygon
   id="_206047544"
   class="fil0"
   points="187.855,245.656 188.137,245.374 "
   transform="matrix(1.1388525,0,0,1.1388525,-21.092331,3.0933465)"
   style="fill:#e5e4e4" />
  </g>
 </g>
</svg>