[
  {
    "id": 1,
    "name": "Accesorios para Vehículos",
    "parent": 0,
    "status": 1,
    "slug":"vehiculos-accesorios"
  },
   
  {
    "id": 2,
    "name": "Alimentos y Bebidas",
    "parent": 0,
    "status": 1,
    "slug":"alimentos-bebidas"
  },
  {
    "id": 3,
    "name": "Animales y Mascotas",
    "parent": 0,
    "status": 1,
    "slug":"animales-mascotas"
  },
  {
    "id": 4,
    "name": "Antigüedades",
    "parent": 0,
    "status": 1,
    "slug":"antiguedades"
  },
  {
    "id": 6,
    "name": "Arte y Artesanías",
    "parent": 0,
    "status": 1,
    "slug":"arte-artesanias"
  },
  {
    "id": 7,
    "name": "Autos, Motos y Otros",
    "parent": 0,
    "status": 1,
    "slug":"vehiculos"
  },
  {
    "id": 8,
    "name": "Bebés",
    "parent": 0,
    "status": 1,
    "slug":"bebes"
  },
  {
    "id": 9,
    "name": "Cámaras y Accesorios",
    "parent": 0,
    "status": 1,
    "slug":"camaras"
  },
  {
    "id": 10,
    "name": "Celulares y Teléfonos",
    "parent": 0,
    "status": 1,
    "slug":"celulares-telefonos"
  },
  {
    "id": 11,
    "name": "Coleccionables y Hobbies",
    "parent": 0,
    "status": 1,
    "slug":"coleccionables-hobbies"
  },
  {
    "id": 12,
    "name": "Computación",
    "parent": 0,
    "status": 1,
    "slug":"computacion"
  },
  {
    "id": 13,
    "name": "Consolas y Videojuegos",
    "parent": 0,
    "status": 1,
    "slug":"consolas-videojuegos"
  },
  {
    "id": 14,
    "name": "Deportes y Fitness",
    "parent": 0,
    "status": 1,
    "slug":"deportes-fitness"
  },
  {
    "id": 15,
    "name": "Electrodomésticos y Aires Ac.",
    "parent": 0,
    "status": 1,
    "slug":"electrodomesticos"
  },
  {
    "id": 16,
    "name": "Electrónica, Audio y Video",
    "parent": 0,
    "status": 1,
    "slug":"electronica"
  },
  {
    "id": 17,
    "name": "Entradas para Eventos",
    "parent": 0,
    "status": 1,
    "slug":"eventos"
  },
  {
    "id": 18,
    "name": "Herramientas y Construcción",
    "parent": 0,
    "status": 1,
    "slug":"herramientas-contruccion"
  },
  {
    "id": 19,
    "name": "Hogar, Muebles y Jardín",
    "parent": 0,
    "status": 1,
    "slug":"hogar"
  },
  {
    "id": 20,
    "name": "Industrias y Oficinas",
    "parent": 0,
    "status": 1,
    "slug":"industrias-oficinas"
  },
  {
    "id": 21,
    "name": "Inmuebles",
    "parent": 0,
    "status": 1,
    "slug":"inmuebles"
  },
  {
    "id": 22,
    "name": "Instrumentos Musicales",
    "parent": 0,
    "status": 1,
    "slug":"instrumentos-musicales"
  },
  {
    "id": 23,
    "name": "Joyas y Relojes",
    "parent": 0,
    "status": 1,
    "slug":"joyas-relojes"
  },
  {
    "id": 24,
    "name": "Juegos y Juguetes",
    "parent": 0,
    "status": 1,
    "slug":"juegos-juguetes"
  },
  {
    "id": 25,
    "name": "Libros, Revistas y Comics",
    "parent": 0,
    "status": 1,
    "slug":"libros-revistas-comics"
  },
  {
    "id": 26,
    "name": "Música, Películas y Series",
    "parent": 0,
    "status": 1,
    "slug":"musica-pelicula-series"
  },
  {
    "id": 27,
    "name": "Ropa y Accesorios",
    "parent": 0,
    "status": 1,
    "slug":"ropa-accesorios"
  },
  {
    "id": 28,
    "name": "Salud y Belleza",
    "parent": 0,
    "status": 1,
    "slug":"salud-belleza"
  },
  {
    "id": 29,
    "name": "Servicios",
    "parent": 0,
    "status": 1,
    "slug":"servicios"
  },
  {
    "id": 30,
    "name": "Otras categorías",
    "parent": 0,
    "status": 1,
    "slug":"otros"
  }
]